…
dfMacroRegionMonth 
```

    ## # A tibble: 79 × 4
    ## # Groups:   monthDeath [16]
    ##    monthDeath macroRegion      n propDeaths
    ##    <yearmon>  <chr>        <int>      <dbl>
    ##  1 Feb 2022   Central          2    0.118  
    ##  2 Feb 2022   North / East     1    0.0588 
    ##  3 Feb 2022   South           11    0.647  
    ##  4 Feb 2022   Volga            3    0.176  
    ##  5 Mar 2022   Central        240    0.176  
    ##  6 Mar 2022   North / East   388    0.285  
    ##  7 Mar 2022   South          456    0.335  
    ##  8 Mar 2022   Volga          275    0.202  
    ##  9 Mar 2022   <NA>             4    0.00293
    ## 10 Apr 2022   Central        173    0.168  
    ## # ℹ 69 more rows
…
